20220906	11:05:04	b94dea54-f3c3-48d0-923e-ef35e941e501	OPTIONS	https://www.google.com	/
20220906	11:05:04	20e2e1f6-bbe6-4c85-88ac-ccce820efd1b	GET	https://www.google.com	/
20220906	11:06:40	cd71bf04-aae0-4d90-92b2-f198d4b5cd3a	OPTIONS	https://www.google.com	/
20220906	11:06:40	9dcd8876-81ce-4cb7-8068-5b8bcf2e5a8a	GET	https://www.google.com	/
